<svg xmlns="http://www.w3.org/2000/svg" width="20" height="20" viewBox="0 0 20 20">
    <g fill="none" fill-rule="evenodd">
        <circle cx="10" cy="10" r="10" fill="#FF730E"/>
        <path fill="#FFF" fill-rule="nonzero" d="M5.115 10.792A.4.4 0 0 1 5 10.529a.4.4 0 0 1 .115-.262l.539-.525a.378.378 0 0 1 .538 0l.039.037 2.115 2.213a.19.19 0 0 0 .27 0l5.153-5.213h.039a.378.378 0 0 1 .538 0l.539.525a.356.356 0 0 1 0 .525L8.73 14.054a.353.353 0 0 1-.27.113.353.353 0 0 1-.269-.113l-3-3.15-.077-.112z"/>
    </g>
</svg>
