<?xml version="1.0" encoding="UTF-8"?>
<svg width="102px" height="38px" viewBox="0 0 271 66" version="1.1" xmlns="http://www.w3.org/2000/svg" xmlns:xlink="http://www.w3.org/1999/xlink">
    <!-- Generator: Sketch 50.2 (55047) - http://www.bohemiancoding.com/sketch -->
    <title>Artboard 1</title>
    <desc>Created with Sketch.</desc>
    <defs>
        <polygon id="path-1" points="0.000411892532 0.5296 53.5970075 0.5296 53.5970075 63 0.000411892532 63"></polygon>
    </defs>
    <g id="Artboard-1" stroke="none" stroke-width="1" fill="none" fill-rule="evenodd">
        <g id="Group-3" transform="translate(0.000000, 3.450000)">
            <mask id="mask-2" fill="white">
                <use xlink:href="#path-1"></use>
            </mask>
            <g id="Clip-2"></g>
            <path d="M17.9387,16.1306 C20.4247,12.9426 24.7147,9.1406 31.0267,9.1406 C34.6627,9.1406 37.4507,10.2256 39.3137,12.3686 C41.7767,15.2016 42.6747,20.0246 41.8427,25.9556 C41.0677,31.4816 38.8807,37.4616 36.1927,41.1476 C34.4707,43.5086 33.7997,44.1796 33.9347,46.1266 C34.0407,47.6656 34.8337,49.1916 35.6897,50.4366 C35.8597,50.6826 37.6507,52.5666 37.4237,52.8096 C36.6617,53.6186 29.6847,48.7876 26.0157,48.7426 C24.8937,48.7296 23.2467,49.1226 22.5207,49.1226 C17.2507,49.1226 13.3977,46.3126 12.2157,41.6056 C10.2197,33.6556 12.6267,22.9416 17.9387,16.1306 M45.9007,45.6866 C47.8257,42.8686 49.4187,39.7956 50.6367,36.5546 C53.9997,27.6126 54.5307,18.3626 52.0587,11.8106 C49.3547,4.6416 42.3717,0.5296 32.8987,0.5296 C30.8327,0.5296 28.7377,0.7346 26.6757,1.1386 C13.9687,3.6266 4.6377,13.4086 1.0767,27.9786 C-0.9693,36.3496 -0.0713,44.2766 3.5407,49.7266 C6.3407,53.9506 10.5817,56.5506 16.1447,57.4506 C18.3147,57.8026 20.5067,57.8566 22.5517,57.8566 L25.2127,57.8586 C27.5407,57.8586 29.4927,57.9496 31.4597,58.2786 C35.2827,58.9206 39.0357,60.2756 42.6657,61.5426 C43.8857,61.9686 45.1057,62.4846 46.3297,62.8866 C46.5417,62.9576 48.0187,63.4306 48.8217,61.7296 C49.1877,60.9546 48.9997,59.8866 48.4087,59.2736 C47.3097,58.1336 44.7277,55.0966 44.0737,54.1186 C41.8497,50.7936 45.5467,46.2026 45.9007,45.6866" id="Fill-1" fill="#FF730E" mask="url(#mask-2)"></path>
        </g>
        <path d="M106.4441,47.7735 C104.4771,49.9335 99.4661,52.7305 97.2761,49.1985 C95.4051,46.1835 96.7891,39.3345 98.1771,35.4655 C99.6391,31.3945 102.9471,26.5115 107.9181,27.3625 C110.1171,27.7395 112.3811,29.4505 113.2391,31.5445 C113.8521,33.0425 112.8401,35.7235 112.3551,37.0115 C112.3551,37.0115 110.3401,43.4945 106.4441,47.7735 M118.7961,57.1495 C118.8321,56.9705 126.0241,21.0425 126.0241,21.0425 C126.1371,20.4765 126.0161,19.9555 125.6721,19.5365 C125.0771,18.8105 123.8681,18.4585 121.9741,18.4585 C120.2561,18.4585 118.4291,18.7565 117.7721,18.9725 C116.4831,19.3955 116.0751,20.1975 115.9631,20.7875 L115.6551,22.3085 C114.5511,21.0855 113.3141,20.1015 111.9611,19.3735 C110.0861,18.3585 107.9891,17.8445 105.7301,17.8445 C101.8271,17.8445 97.6691,19.4025 94.3211,22.1185 C87.0261,28.0325 85.3971,37.9005 85.0341,41.8675 C84.2951,49.9615 86.8401,60.0805 96.6751,60.0805 C101.1661,60.0805 106.0441,57.9745 109.1641,54.7005 L108.7341,56.9015 C108.6401,57.3785 108.7691,57.8595 109.0951,58.2545 C109.9481,59.2935 112.0391,59.6615 113.7131,59.6615 C115.9261,59.6615 118.4241,59.0025 118.7961,57.1495" id="Fill-4" fill="#4D4D4D"></path>
        <path d="M179.7693,18.9214 C179.2293,18.3374 178.6343,18.3974 178.1263,18.3324 C176.7803,18.1604 173.8233,18.1194 172.5363,18.1194 L171.4133,18.1194 C173.4713,10.1194 172.5703,9.3014 172.0033,9.0044 C171.1523,8.5574 170.0533,8.2934 167.0273,8.3694 C163.2403,8.4664 162.3323,9.7294 162.3313,10.0284 L160.7463,18.1194 C157.9393,18.1444 150.0893,18.0884 147.0903,18.0394 C147.0903,18.0394 147.4633,15.6064 147.5073,15.3974 C147.9903,13.0854 148.5543,10.9064 150.1353,9.6734 C150.9963,9.0024 152.1003,8.6614 153.4183,8.6614 C154.7083,8.6614 155.9163,9.3584 157.1603,9.3584 C157.5943,9.3584 157.9803,9.1874 158.3063,8.8504 C158.8953,8.2414 159.0853,7.2494 159.2253,6.5244 L159.2593,6.3444 C159.4843,5.2264 160.1643,1.8234 158.1643,0.9984 C156.5773,0.3354 154.8143,0.0004 152.9243,0.0004 C149.5033,0.0004 146.0403,1.1134 143.4213,3.0544 C138.9773,6.3484 137.0193,15.4704 136.5403,18.0704 L131.8763,18.0394 C129.8803,18.0394 129.2593,21.5984 129.1543,22.3124 C128.6403,25.8584 129.0053,27.7574 130.2393,27.9584 C130.9953,28.0794 133.2063,28.1324 134.5123,28.1534 C133.7883,31.9774 130.1153,51.0994 128.9573,57.2714 C128.6173,59.0914 131.4923,59.4664 133.7423,59.5914 C136.3633,59.7374 139.1503,58.5494 139.3023,57.8694 C140.9533,50.4654 144.8143,30.3804 145.2733,28.2054 L158.6623,28.1964 C157.7703,32.2034 154.5443,47.0224 154.6693,51.5264 C154.8103,56.4854 159.1213,59.2774 163.6693,59.7724 C166.4023,60.0694 170.4763,59.9924 172.4293,57.6904 C173.7943,56.0814 174.2793,53.3104 174.2783,51.2554 C174.2773,50.1984 173.2983,49.8544 172.4253,50.1944 C171.2483,50.6534 169.9653,51.0384 168.6923,51.0384 C167.6873,51.0384 166.9503,50.7614 166.4343,50.1954 C164.9133,48.5224 165.8923,44.2184 166.4743,41.6464 C166.5823,41.1724 168.9573,30.5464 169.4303,28.5284 C170.9443,28.5604 174.7523,28.6304 176.8523,28.6304 C178.8943,28.6304 179.6363,26.5594 179.9443,24.8714 C180.2243,23.3364 180.9203,20.1684 179.7693,18.9214" id="Fill-6" fill="#4D4D4D"></path>
        <path d="M71.865,19.8906 C70.548,19.3676 67.789,19.1616 66.413,19.1196 C64.73,19.0696 62.91,19.2156 62.189,20.3136 C62.054,20.5196 55.423,56.0206 55.387,56.1726 C55.216,56.8756 54.96,57.9366 56.161,58.6536 C56.763,59.0126 57.535,59.4556 59.791,59.5476 C61.59,59.6196 63.932,59.0086 64.9,58.0796 C65.424,57.5736 72.409,20.7146 72.357,20.4586 C72.305,20.1916 72.119,19.9916 71.865,19.8906" id="Fill-8" fill="#4D4D4D"></path>
        <path d="M85.2439,22.1851 C85.0109,21.8431 84.7149,19.2451 78.4999,21.0431 C75.6669,21.8621 70.4109,25.2641 69.3019,28.1201 C68.4769,30.2491 69.1159,28.7031 68.5689,30.9161 C68.3659,31.7381 67.0929,40.7971 67.9649,38.9571 C71.3399,31.8321 77.3069,31.5371 80.9849,31.5371 C82.1669,31.5371 82.8179,31.3971 83.2359,31.0511 C84.5499,29.9661 85.8559,23.0771 85.2439,22.1851" id="Fill-10" fill="#4D4D4D"></path>
        <path d="M234.1452,41.3696 L243.8262,41.3836 C244.3712,41.3836 244.9012,40.9376 245.0072,40.3906 L245.3312,38.7266 C245.3842,38.4486 245.3252,38.1866 245.1622,37.9896 C245.0052,37.7996 244.7712,37.6936 244.5032,37.6936 L234.3482,37.6796 C233.7152,37.6796 233.1682,38.1306 233.0462,38.7516 L232.8442,39.7916 C232.7692,40.1806 232.8712,40.5796 233.1232,40.8866 C233.3742,41.1926 233.7482,41.3686 234.1452,41.3696" id="Fill-12" fill="#4D4D4D"></path>
        <path d="M235.3884,32.3237 C234.7544,32.3237 234.2064,32.7747 234.0864,33.3957 L233.8844,34.4347 C233.8094,34.8247 233.9104,35.2237 234.1634,35.5307 C234.4154,35.8377 234.7874,36.0127 235.1854,36.0127 L244.8674,36.0267 C245.4114,36.0267 245.9414,35.5817 246.0474,35.0337 L246.3684,33.3727 C246.4234,33.0947 246.3644,32.8317 246.2014,32.6347 C246.0454,32.4437 245.8114,32.3387 245.5434,32.3387 L235.3884,32.3237 Z" id="Fill-14" fill="#4D4D4D"></path>
        <path d="M237.3357,24.814 L247.3637,24.829 C247.9067,24.829 248.4367,24.383 248.5437,23.835 L248.8657,22.173 C248.9407,21.787 248.8037,21.245 248.5537,20.94 C248.4127,20.769 248.2437,20.678 248.0647,20.678 L237.6047,20.664 C236.9607,20.664 236.4117,21.123 236.2997,21.756 L236.0317,23.256 C235.9637,23.643 236.0687,24.039 236.3207,24.339 C236.5737,24.641 236.9427,24.814 237.3357,24.814" id="Fill-16" fill="#4D4D4D"></path>
        <path d="M234.7448,30.8169 L246.6808,30.8349 C247.2238,30.8349 247.7538,30.3889 247.8598,29.8399 C247.8598,29.8399 248.0008,29.0759 248.2128,28.0409 C248.3128,27.5509 248.2448,27.1299 248.0198,26.8559 C247.8278,26.6209 247.5278,26.4969 247.1518,26.4969 L235.5468,26.4789 C234.6398,26.4789 233.8548,27.1249 233.6828,28.0149 L233.4448,29.2389 C233.3698,29.6289 233.4708,30.0279 233.7228,30.3339 C233.9748,30.6399 234.3478,30.8169 234.7448,30.8169" id="Fill-18" fill="#4D4D4D"></path>
        <path d="M238.3562,50.815 C238.2682,51.273 237.8312,51.646 237.3772,51.646 L235.4722,51.643 C235.3042,51.642 235.1652,51.568 235.0582,51.437 C234.9522,51.308 234.9482,51.139 234.9802,50.975 L235.7622,47.347 C235.8122,47.085 235.9332,46.871 236.4612,46.893 L238.3292,46.895 C238.5362,46.896 238.7142,46.975 238.8332,47.119 C238.9572,47.269 239.0022,47.472 238.9602,47.691 L238.3562,50.815 Z M261.2312,37.859 C261.1432,38.317 260.7012,38.691 260.2472,38.691 L254.4782,38.682 C254.3482,38.682 254.2262,38.625 254.1442,38.524 C254.0612,38.423 254.0272,38.293 254.0522,38.165 L254.6352,35.162 C254.7372,34.637 255.1992,34.256 255.7332,34.256 L261.1452,34.264 C261.3522,34.265 261.5312,34.344 261.6492,34.488 C261.7732,34.638 261.8182,34.841 261.7752,35.06 L261.2312,37.859 Z M271.2942,30.755 C270.1652,29.085 268.7582,24.807 268.0212,22.407 C267.6272,21.124 266.4572,20.261 265.0712,20.261 C264.4572,20.269 263.6932,20.273 262.8592,20.277 C260.9812,20.287 258.6442,20.299 256.9502,20.367 C256.2142,20.395 255.6142,20.898 255.4892,21.588 L254.9792,24.418 C254.9462,24.602 254.9962,24.792 255.1162,24.936 C255.2372,25.081 255.4142,25.165 255.6032,25.165 L262.8312,25.175 C263.0222,25.175 263.1942,25.308 263.2492,25.499 C263.7032,27.074 264.1282,28.317 264.5142,29.194 C264.5862,29.357 264.5712,29.536 264.4732,29.686 C264.3742,29.838 264.2052,29.93 264.0212,29.93 L254.8562,29.917 C254.6882,29.917 254.5382,29.822 254.4632,29.67 C254.3902,29.521 254.4072,29.354 254.5072,29.224 C255.0472,28.525 255.5942,27.748 256.1352,26.914 C256.2422,26.749 256.2662,26.546 256.2022,26.359 C256.1392,26.172 255.9982,26.029 255.8152,25.963 L253.9642,25.302 C253.7812,25.237 253.5902,25.204 253.3982,25.204 C252.8182,25.204 252.2722,25.502 251.9382,26.001 C250.5852,28.02 248.8132,29.962 246.6702,31.771 C246.5342,31.886 246.4512,32.054 246.4432,32.231 C246.4352,32.406 246.4982,32.571 246.6202,32.696 L248.3592,34.474 C248.4772,34.594 248.6432,34.664 248.8142,34.664 C248.9662,34.664 249.1132,34.615 249.2272,34.518 C249.4052,34.37 249.5732,34.231 249.7312,34.09 L248.4242,40.833 C248.3192,41.377 248.4612,41.963 248.8152,42.393 C249.1692,42.821 249.6892,43.12 250.2452,43.12 L250.5842,43.12 C250.4002,44.12 249.4742,46.861 247.8682,49.117 C246.3352,51.267 244.9032,52.135 243.5162,53.025 C243.2712,53.183 243.0272,53.34 242.7832,53.503 L244.3852,45.25 C244.4902,44.71 244.3732,44.199 244.0532,43.812 C243.7352,43.425 243.2562,43.211 242.7072,43.211 L233.1802,43.198 C232.1832,43.198 231.3262,43.91 231.1412,44.89 L229.4242,54.034 C229.3522,54.421 229.4542,54.818 229.7042,55.122 C229.9552,55.426 230.3252,55.602 230.7182,55.604 L240.9602,55.672 C241.7192,55.672 242.3742,55.175 242.5872,54.464 L243.4312,55.456 C243.8852,55.988 244.5472,56.294 245.2502,56.294 C245.6722,56.294 246.0882,56.179 246.4522,55.964 C248.9962,54.458 250.9292,52.795 252.1992,51.023 C253.7372,48.878 254.8012,46.324 255.3652,43.429 L255.4432,43.024 L257.2522,43.026 L255.2892,53.132 C255.0752,54.266 255.2142,55.14 255.7032,55.73 C256.2142,56.348 257.1182,56.626 258.3862,56.665 C259.9642,56.713 262.6782,56.671 262.6862,56.67 C266.0892,56.432 266.6922,54.501 267.5502,51.458 C267.7972,50.578 267.7772,49.463 266.3392,48.833 C265.9352,48.655 265.2072,48.47 264.8472,48.419 C264.2772,48.338 263.9022,48.182 263.7352,48.905 C263.5702,49.618 263.2092,51.09 262.8392,51.691 C262.5772,52.117 262.2642,52.289 261.6892,52.345 C261.4642,52.367 261.1662,52.339 261.1662,52.339 C261.0462,52.335 260.9622,52.31 260.9092,52.243 C260.8192,52.129 260.8032,51.94 260.8622,51.638 L262.5242,43.12 L263.8422,43.12 C264.6682,43.12 265.4692,42.418 265.6272,41.607 L267.1432,33.751 C267.3692,33.989 267.7242,34.212 268.2602,34.212 C268.8922,34.212 269.6402,33.902 270.4862,33.289 C271.6012,32.479 271.5572,31.146 271.2942,30.755 Z" id="Fill-20" fill="#4D4D4D"></path>
        <path d="M230.1247,24.1392 L230.4987,22.2922 C230.5597,21.7972 230.4047,21.2982 230.0747,20.9242 C229.7447,20.5492 229.2697,20.3342 228.7697,20.3332 C228.7697,20.3332 206.7017,20.2702 198.8767,20.2702 C195.3317,20.2702 194.8587,22.7772 194.7037,23.6012 C193.3217,30.9222 189.4427,51.6892 189.4427,51.6892 C189.2067,52.9462 189.7247,54.2432 190.8447,54.9992 C191.3897,55.3682 192.0477,55.5272 192.7057,55.5282 C200.4587,55.5412 223.3397,55.6302 223.3407,55.6302 C224.3537,55.6282 224.8427,54.9012 225.0857,53.0442 C225.1737,52.3682 225.0017,51.7262 224.6147,51.2852 C224.3797,51.0182 224.0897,50.8582 223.8397,50.8582 C216.9647,50.8482 196.9117,50.8112 196.9117,50.8112 C196.4527,50.8102 196.0207,50.6072 195.7287,50.2522 C195.4367,49.8982 195.3197,49.4362 195.4077,48.9852 L199.6107,27.3392 C199.8577,26.0692 200.9707,25.1512 202.2647,25.1512 L228.9457,25.1392 C229.4937,25.1392 230.0227,24.6902 230.1247,24.1392" id="Fill-22" fill="#4D4D4D"></path>
        <path d="M224.5788,34.729 L208.3328,34.707 C208.2688,34.706 208.2098,34.677 208.1698,34.628 C208.1308,34.581 208.1148,34.517 208.1268,34.457 L208.4648,32.749 C208.5378,32.372 208.8598,32.098 209.2468,32.083 C211.3158,32.009 213.9958,31.81 217.2128,31.491 C219.9998,31.214 222.1758,30.933 223.6818,30.655 C224.0168,30.592 224.3238,30.376 224.5048,30.077 C224.6608,29.819 224.7048,29.525 224.6248,29.27 C224.6248,29.27 224.1208,27.732 223.9548,27.12 C223.8888,26.881 223.6888,26.566 223.3438,26.458 C223.1348,26.392 222.9218,26.359 222.7138,26.359 C222.5298,26.359 222.3868,26.384 222.2948,26.404 C220.2168,26.83 217.1348,27.224 213.1338,27.575 C210.0528,27.845 207.0078,28.153 205.3378,28.327 C204.5138,28.412 203.8658,29.019 203.7268,29.838 C203.3178,32.252 202.7718,35.385 202.4918,36.597 C201.3738,41.442 199.6158,43.789 196.7648,46.425 C196.5508,46.623 196.4258,46.901 196.4218,47.189 C196.4178,47.475 196.5278,47.742 196.7318,47.94 L198.4838,49.696 C198.6828,49.89 198.9458,49.997 199.2248,49.997 C199.4588,49.997 199.6858,49.917 199.8658,49.772 C203.2088,47.064 205.6148,43.514 207.0178,39.219 C207.0478,39.133 207.1258,39.075 207.2138,39.075 L212.7658,39.083 C212.8288,39.083 212.8878,39.111 212.9278,39.16 C212.9668,39.208 212.9828,39.271 212.9718,39.333 L211.2348,48.13 C211.1478,48.57 211.2618,49.021 211.5458,49.367 C211.8298,49.713 212.2498,49.913 212.6978,49.913 L215.2338,49.917 C215.9168,49.917 216.5808,49.372 216.7138,48.701 L218.5768,39.261 C218.5958,39.163 218.6828,39.091 218.7818,39.091 L224.2028,39.099 C224.8878,39.099 225.5508,38.554 225.6828,37.883 L225.9708,36.424 C226.0588,35.976 225.9628,35.552 225.6988,35.23 C225.4338,34.908 225.0368,34.73 224.5788,34.729" id="Fill-24" fill="#4D4D4D"></path>
    </g>
</svg>